<?xml version="1.0"?>
<svg
    xmlns:rdf="http://www.w3.org/1999/02/22-rdf-syntax-ns#"
    xmlns="http://www.w3.org/2000/svg"
    xmlns:cc="http://web.resource.org/cc/"
    xmlns:xlink="http://www.w3.org/1999/xlink"
    xmlns:dc="http://purl.org/dc/elements/1.1/"
    xmlns:svg="http://www.w3.org/2000/svg"
    xmlns:inkscape="http://www.inkscape.org/namespaces/inkscape"
    xmlns:sodipodi="http://sodipodi.sourceforge.net/DTD/sodipodi-0.dtd"
    xmlns:ns1="http://sozi.baierouge.fr"
    viewBox="0 0 640 500"
  >
  <desc
    >Produced by GNUPLOT 4.2 patchlevel 0</desc
  >
  <g
      style="color:black"
      stroke-width="0"
      fill="none"
    >
    <g
        style="shape-rendering:crispEdges"
      >
      <polygon
          points="103 446 103 25 524.5 25 524.5 446"
          fill="#eef"
      />
    </g
    >
    <path
        d="m103 446v-421h421.5v421h-421.5"
    />
  </g
  >
  <g
      style="color:gray"
      stroke="currentColor"
      fill="none"
    >
    <path
        d="m103 446h421.5"
    />
  </g
  >
  <g
      style="color:black"
      stroke="currentColor"
      fill="none"
    >
    <path
        d="m103 446m421.5 0"
    />
    <g
        style="text-anchor:end"
        font-family="Arial"
        transform="translate(90.5,452.7)"
        font-size="18"
        fill="#000"
      >
      <text
        >0</text
      >
    </g
    >
  </g
  >
  <g
      style="color:gray"
      stroke="currentColor"
      fill="none"
    >
    <path
        d="m103 375.8h421.5"
    />
  </g
  >
  <g
      style="color:black"
      stroke="currentColor"
      fill="none"
    >
    <path
        d="m103 375.8m421.5 0"
    />
    <g
        style="text-anchor:end"
        font-family="Arial"
        transform="translate(90.5,382.5)"
        font-size="18"
        fill="#000"
      >
      <text
        >5</text
      >
    </g
    >
  </g
  >
  <g
      style="color:gray"
      stroke="currentColor"
      fill="none"
    >
    <path
        d="m103 305.7h421.5"
    />
  </g
  >
  <g
      style="color:black"
      stroke="currentColor"
      fill="none"
    >
    <path
        d="m103 305.7m421.5 0"
    />
    <g
        style="text-anchor:end"
        font-family="Arial"
        transform="translate(90.5,312.4)"
        font-size="18"
        fill="#000"
      >
      <text
        >10</text
      >
    </g
    >
  </g
  >
  <g
      style="color:gray"
      stroke="currentColor"
      fill="none"
    >
    <path
        d="m103 235.5h421.5"
    />
  </g
  >
  <g
      style="color:black"
      stroke="currentColor"
      fill="none"
    >
    <path
        d="m103 235.5m421.5 0"
    />
    <g
        style="text-anchor:end"
        font-family="Arial"
        transform="translate(90.5,242.2)"
        font-size="18"
        fill="#000"
      >
      <text
        >15</text
      >
    </g
    >
  </g
  >
  <g
      style="color:gray"
      stroke="currentColor"
      fill="none"
    >
    <path
        d="m103 165.3h421.5"
    />
  </g
  >
  <g
      style="color:black"
      stroke="currentColor"
      fill="none"
    >
    <path
        d="m103 165.3m421.5 0"
    />
    <g
        style="text-anchor:end"
        font-family="Arial"
        transform="translate(90.5 172)"
        font-size="18"
        fill="#000"
      >
      <text
        >20</text
      >
    </g
    >
  </g
  >
  <g
      style="color:gray"
      stroke="currentColor"
      fill="none"
    >
    <path
        d="m103 95.2h421.5"
    />
  </g
  >
  <g
      style="color:black"
      stroke="currentColor"
      fill="none"
    >
    <path
        d="m103 95.2m421.5 0"
    />
    <g
        style="text-anchor:end"
        font-family="Arial"
        transform="translate(90.5,101.9)"
        font-size="18"
        fill="#000"
      >
      <text
        >25</text
      >
    </g
    >
  </g
  >
  <g
      style="color:gray"
      stroke="currentColor"
      fill="none"
    >
    <path
        d="m103 25h421.5"
    />
  </g
  >
  <g
      style="color:black"
      stroke="currentColor"
      fill="none"
    >
    <path
        d="m103 25m421.5 0"
    />
    <g
        style="text-anchor:end"
        font-family="Arial"
        transform="translate(90.5,31.7)"
        font-size="18"
        fill="#000"
      >
      <text
        >30</text
      >
    </g
    >
    <path
        d="m120.6 446m0-421"
    />
    <g
        style="text-anchor:middle"
        font-family="Arial"
        transform="translate(120.6,479.7)"
        font-size="18"
        fill="#000"
      >
      <text
        >J</text
      >
    </g
    >
    <path
        d="m155.7 446m0-421"
    />
    <g
        style="text-anchor:middle"
        font-family="Arial"
        transform="translate(155.7,479.7)"
        font-size="18"
        fill="#000"
      >
      <text
        >F</text
      >
    </g
    >
    <path
        d="m190.8 446m0-421"
    />
    <g
        style="text-anchor:middle"
        font-family="Arial"
        transform="translate(190.8,479.7)"
        font-size="18"
        fill="#000"
      >
      <text
        >M</text
      >
    </g
    >
    <path
        d="m225.9 446m0-421"
    />
    <g
        style="text-anchor:middle"
        font-family="Arial"
        transform="translate(225.9,479.7)"
        font-size="18"
        fill="#000"
      >
      <text
        >A</text
      >
    </g
    >
    <path
        d="m261.1 446m0-421"
    />
    <g
        style="text-anchor:middle"
        font-family="Arial"
        transform="translate(261.1,479.7)"
        font-size="18"
        fill="#000"
      >
      <text
        >M</text
      >
    </g
    >
    <path
        d="m296.2 446m0-421"
    />
    <g
        style="text-anchor:middle"
        font-family="Arial"
        transform="translate(296.2,479.7)"
        font-size="18"
        fill="#000"
      >
      <text
        >J</text
      >
    </g
    >
    <path
        d="m331.3 446m0-421"
    />
    <g
        style="text-anchor:middle"
        font-family="Arial"
        transform="translate(331.3,479.7)"
        font-size="18"
        fill="#000"
      >
      <text
        >J</text
      >
    </g
    >
    <path
        d="m366.4 446m0-421"
    />
    <g
        style="text-anchor:middle"
        font-family="Arial"
        transform="translate(366.4,479.7)"
        font-size="18"
        fill="#000"
      >
      <text
        >A</text
      >
    </g
    >
    <path
        d="m401.6 446m0-421"
    />
    <g
        style="text-anchor:middle"
        font-family="Arial"
        transform="translate(401.6,479.7)"
        font-size="18"
        fill="#000"
      >
      <text
        >S</text
      >
    </g
    >
    <path
        d="m436.7 446m0-421"
    />
    <g
        style="text-anchor:middle"
        font-family="Arial"
        transform="translate(436.7,479.7)"
        font-size="18"
        fill="#000"
      >
      <text
        >O</text
      >
    </g
    >
    <path
        d="m471.8 446m0-421"
    />
    <g
        style="text-anchor:middle"
        font-family="Arial"
        transform="translate(471.8,479.7)"
        font-size="18"
        fill="#000"
      >
      <text
        >N</text
      >
    </g
    >
    <path
        d="m506.9 446m0-421"
    />
    <g
        style="text-anchor:middle"
        font-family="Arial"
        transform="translate(506.9,479.7)"
        font-size="18"
        fill="#000"
      >
      <text
        >D</text
      >
    </g
    >
    <path
        d="m524.5 446"
    />
    <g
        font-size="18"
        font-family="Arial"
        transform="translate(537 452.7)"
        fill="#000"
      >
      <text
        >0</text
      >
    </g
    >
    <path
        d="m524.5 305.7"
    />
    <g
        font-size="18"
        font-family="Arial"
        transform="translate(537 312.4)"
        fill="#000"
      >
      <text
        >50</text
      >
    </g
    >
    <path
        d="m524.5 165.3"
    />
    <g
        font-size="18"
        font-family="Arial"
        transform="translate(537 172)"
        fill="#000"
      >
      <text
        >100</text
      >
    </g
    >
    <path
        d="m524.5 25"
    />
    <g
        font-size="18"
        font-family="Arial"
        transform="translate(537 31.7)"
        fill="#000"
      >
      <text
        >150</text
      >
    </g
    >
    <path
        d="m103 25v421h421.5v-421h-421.5z"
    />
    <g
        style="text-anchor:middle"
        font-family="Arial"
        transform="translate(33.7,235.5) rotate(-90)"
        font-size="18"
        fill="#000"
      >
      <text
        >Avg temperature (&#xB0;C)</text
      >
    </g
    >
    <g
        style="text-anchor:middle"
        font-family="Arial"
        transform="translate(619.6,235.5) rotate(-90)"
        font-size="18"
        fill="#000"
      >
      <text
        >Avg precipitation (mm)</text
      >
    </g
    >
    <g
        font-size="18"
        font-family="Arial"
        transform="translate(475 47.7)"
        fill="#f00"
      >
      <text
        >max</text
      >
    </g
    >
    <g
        font-size="18"
        font-family="Arial"
        transform="translate(475 74.7)"
        fill="#00f"
      >
      <text
        >min</text
      >
    </g
    >
  </g
  >
  <g
      style="color:red"
      stroke="currentColor"
      fill="none"
    >
    <g
        style="shape-rendering:crispEdges"
      >
      <polygon
          points="110 446 110 190.5 131.2 190.5 131.2 446"
          fill="#bbf"
      />
    </g
    >
    <path
        stroke="#bbf"
        d="m110 446v-255.4h21.1v255.4h-21.1z"
    />
    <g
        style="shape-rendering:crispEdges"
      >
      <polygon
          points="145.1 446 145.1 241 166.3 241 166.3 446"
          fill="#bbf"
      />
    </g
    >
    <path
        stroke="#bbf"
        d="m145.1 446v-204.9h21.1v204.9h-21.1z"
    />
    <g
        style="shape-rendering:crispEdges"
      >
      <polygon
          points="180.3 446 180.3 252.2 201.4 252.2 201.4 446"
          fill="#bbf"
      />
    </g
    >
    <path
        stroke="#bbf"
        d="m180.3 446v-193.7h21v193.7h-21z"
    />
    <g
        style="shape-rendering:crispEdges"
      >
      <polygon
          points="215.4 446 215.4 392.6 236.6 392.6 236.6 446"
          fill="#bbf"
      />
    </g
    >
    <path
        stroke="#bbf"
        d="m215.4 446v-53.3h21.1v53.3h-21.1z"
    />
    <g
        style="shape-rendering:crispEdges"
      >
      <polygon
          points="250.5 446 250.5 412.2 271.7 412.2 271.7 446"
          fill="#bbf"
      />
    </g
    >
    <path
        stroke="#bbf"
        d="m250.5 446v-33.7h21.1v33.7h-21.1z"
    />
    <g
        style="shape-rendering:crispEdges"
      >
      <polygon
          points="285.7 446 285.7 415 306.8 415 306.8 446"
          fill="#bbf"
      />
    </g
    >
    <path
        stroke="#bbf"
        d="m285.7 446v-30.9h21v30.9h-21z"
    />
    <g
        style="shape-rendering:crispEdges"
      >
      <polygon
          points="320.8 446 320.8 440.3 341.9 440.3 341.9 446"
          fill="#bbf"
      />
    </g
    >
    <path
        stroke="#bbf"
        d="m320.8 446v-5.6h21v5.6h-21z"
    />
    <g
        style="shape-rendering:crispEdges"
      >
      <polygon
          points="355.9 446 355.9 443.1 377.1 443.1 377.1 446"
          fill="#bbf"
      />
    </g
    >
    <path
        stroke="#bbf"
        d="m355.9 446v-2.8h21.1v2.8h-21.1z"
    />
    <g
        style="shape-rendering:crispEdges"
      >
      <polygon
          points="391 446 391 415 412.2 415 412.2 446"
          fill="#bbf"
      />
    </g
    >
    <path
        stroke="#bbf"
        d="m391 446v-30.9h21.1v30.9h-21.1z"
    />
    <g
        style="shape-rendering:crispEdges"
      >
      <polygon
          points="426.1 446 426.1 319.6 447.3 319.6 447.3 446"
          fill="#bbf"
      />
    </g
    >
    <path
        stroke="#bbf"
        d="m426.1 446v-126.3h21.1v126.3h-21.1z"
    />
    <g
        style="shape-rendering:crispEdges"
      >
      <polygon
          points="461.3 446 461.3 311.2 482.5 311.2 482.5 446"
          fill="#bbf"
      />
    </g
    >
    <path
        stroke="#bbf"
        d="m461.3 446v-134.7h21.1v134.7h-21.1z"
    />
    <g
        style="shape-rendering:crispEdges"
      >
      <polygon
          points="496.4 446 496.4 184.9 517.6 184.9 517.6 446"
          fill="#bbf"
      />
    </g
    >
    <path
        stroke="#bbf"
        d="m496.4 446v-261h21.1v261h-21.1z"
    />
  </g
  >
  <g
      style="color:blue"
      stroke-width="2"
      stroke="currentColor"
      fill="none"
    >
    <path
        d="m120.6 305.7h35.1l35.1-14.1 35.1-28 35.2-42.1 35.1-56.2 35.1-28h35.1l35.2 28 35.1 28.1 35.1 42.1 35.1 42.1"
    />
  </g
  >
  <g
      style="color:red"
      stroke-width="2"
      stroke="currentColor"
      fill="none"
    >
    <path
        d="m120.6 235.5h35.1l35.1-14 35.1-56.2 35.2-42.1 35.1-42.1 35.1-14 35.1-14 35.2 28 35.1 28.1 35.1 56.1 35.1 42.1"
    />
  </g
  >
  <g
      style="color:black"
      stroke="currentColor"
      fill="none"
    >
    <path
        d="m103 25v421h421.5v-421h-421.5z"
    />
  </g
  >
  <metadata
    >
    <rdf:RDF
      >
      <cc:Work
        >
        <dc:format
          >image/svg+xml</dc:format
        >
        <dc:type
            rdf:resource="http://purl.org/dc/dcmitype/StillImage"
        />
        <cc:license
            rdf:resource="http://creativecommons.org/licenses/publicdomain/"
        />
        <dc:publisher
          >
          <cc:Agent
              rdf:about="http://openclipart.org/"
            >
            <dc:title
              >Openclipart</dc:title
            >
          </cc:Agent
          >
        </dc:publisher
        >
        <dc:title
          >Climate Chart Of Naxos</dc:title
        >
        <dc:date
          >2013-08-29T20:15:56</dc:date
        >
        <dc:description
          >Public Domain Source http://commons.wikimedia.org/wiki/File:Climate_chart_of_Naxos.svg </dc:description
        >
        <dc:source
          >https://openclipart.org/detail/182674/climate-chart-of-naxos-by-gnuplot-182674</dc:source
        >
        <dc:creator
          >
          <cc:Agent
            >
            <dc:title
              >gnuplot</dc:title
            >
          </cc:Agent
          >
        </dc:creator
        >
        <dc:subject
          >
          <rdf:Bag
            >
            <rdf:li
              >Naxos</rdf:li
            >
            <rdf:li
              >chart</rdf:li
            >
            <rdf:li
              >climate</rdf:li
            >
            <rdf:li
              >gnuplot</rdf:li
            >
            <rdf:li
              >upload2openclipart</rdf:li
            >
          </rdf:Bag
          >
        </dc:subject
        >
      </cc:Work
      >
      <cc:License
          rdf:about="http://creativecommons.org/licenses/publicdomain/"
        >
        <cc:permits
            rdf:resource="http://creativecommons.org/ns#Reproduction"
        />
        <cc:permits
            rdf:resource="http://creativecommons.org/ns#Distribution"
        />
        <cc:permits
            rdf:resource="http://creativecommons.org/ns#DerivativeWorks"
        />
      </cc:License
      >
    </rdf:RDF
    >
  </metadata
  >
</svg
>
