<?xml version="1.0"?>
<svg
    xmlns:rdf="http://www.w3.org/1999/02/22-rdf-syntax-ns#"
    xmlns="http://www.w3.org/2000/svg"
    xmlns:cc="http://web.resource.org/cc/"
    xmlns:xlink="http://www.w3.org/1999/xlink"
    xmlns:dc="http://purl.org/dc/elements/1.1/"
    xmlns:svg="http://www.w3.org/2000/svg"
    xmlns:inkscape="http://www.inkscape.org/namespaces/inkscape"
    xmlns:sodipodi="http://sodipodi.sourceforge.net/DTD/sodipodi-0.dtd"
    xmlns:ns1="http://sozi.baierouge.fr"
    viewBox="0 0 640 500"
  >
  <desc
    >Produced by GNUPLOT 4.2 patchlevel 0</desc
  >
  <g
      style="color:black"
      stroke-width="0"
      fill="none"
    >
    <g
        style="shape-rendering:crispEdges"
      >
      <polygon
          points="103 446 103 25 524.5 25 524.5 446"
          fill="#eef"
      />
    </g
    >
    <path
        d="m103 446v-421h421.5v421h-421.5"
    />
  </g
  >
  <g
      style="color:gray"
      stroke="currentColor"
      fill="none"
    >
    <path
        d="m103 446h421.5"
    />
  </g
  >
  <g
      style="color:black"
      stroke="currentColor"
      fill="none"
    >
    <path
        d="m103 446m421.5 0"
    />
    <g
        style="text-anchor:end"
        font-family="Arial"
        transform="translate(90.5,452.7)"
        font-size="18"
        fill="#000"
      >
      <text
        >-40</text
      >
    </g
    >
  </g
  >
  <g
      style="color:gray"
      stroke="currentColor"
      fill="none"
    >
    <path
        d="m103 393.4h421.5"
    />
  </g
  >
  <g
      style="color:black"
      stroke="currentColor"
      fill="none"
    >
    <path
        d="m103 393.4m421.5 0"
    />
    <g
        style="text-anchor:end"
        font-family="Arial"
        transform="translate(90.5,400.1)"
        font-size="18"
        fill="#000"
      >
      <text
        >-30</text
      >
    </g
    >
  </g
  >
  <g
      style="color:gray"
      stroke="currentColor"
      fill="none"
    >
    <path
        d="m103 340.7h421.5"
    />
  </g
  >
  <g
      style="color:black"
      stroke="currentColor"
      fill="none"
    >
    <path
        d="m103 340.7m421.5 0"
    />
    <g
        style="text-anchor:end"
        font-family="Arial"
        transform="translate(90.5,347.4)"
        font-size="18"
        fill="#000"
      >
      <text
        >-20</text
      >
    </g
    >
  </g
  >
  <g
      style="color:gray"
      stroke="currentColor"
      fill="none"
    >
    <path
        d="m103 288.1h421.5"
    />
  </g
  >
  <g
      style="color:black"
      stroke="currentColor"
      fill="none"
    >
    <path
        d="m103 288.1m421.5 0"
    />
    <g
        style="text-anchor:end"
        font-family="Arial"
        transform="translate(90.5,294.8)"
        font-size="18"
        fill="#000"
      >
      <text
        >-10</text
      >
    </g
    >
  </g
  >
  <g
      style="color:gray"
      stroke="currentColor"
      fill="none"
    >
    <path
        d="m103 235.5h421.5"
    />
  </g
  >
  <g
      style="color:black"
      stroke="currentColor"
      fill="none"
    >
    <path
        d="m103 235.5m421.5 0"
    />
    <g
        style="text-anchor:end"
        font-family="Arial"
        transform="translate(90.5,242.2)"
        font-size="18"
        fill="#000"
      >
      <text
        >0</text
      >
    </g
    >
  </g
  >
  <g
      style="color:gray"
      stroke="currentColor"
      fill="none"
    >
    <path
        d="m103 182.9h421.5"
    />
  </g
  >
  <g
      style="color:black"
      stroke="currentColor"
      fill="none"
    >
    <path
        d="m103 182.9m421.5 0"
    />
    <g
        style="text-anchor:end"
        font-family="Arial"
        transform="translate(90.5,189.6)"
        font-size="18"
        fill="#000"
      >
      <text
        >10</text
      >
    </g
    >
  </g
  >
  <g
      style="color:gray"
      stroke="currentColor"
      fill="none"
    >
    <path
        d="m103 130.2h421.5"
    />
  </g
  >
  <g
      style="color:black"
      stroke="currentColor"
      fill="none"
    >
    <path
        d="m103 130.2m421.5 0"
    />
    <g
        style="text-anchor:end"
        font-family="Arial"
        transform="translate(90.5,136.9)"
        font-size="18"
        fill="#000"
      >
      <text
        >20</text
      >
    </g
    >
  </g
  >
  <g
      style="color:gray"
      stroke="currentColor"
      fill="none"
    >
    <path
        d="m103 77.6h421.5"
    />
  </g
  >
  <g
      style="color:black"
      stroke="currentColor"
      fill="none"
    >
    <path
        d="m103 77.6m421.5 0"
    />
    <g
        style="text-anchor:end"
        font-family="Arial"
        transform="translate(90.5,84.3)"
        font-size="18"
        fill="#000"
      >
      <text
        >30</text
      >
    </g
    >
  </g
  >
  <g
      style="color:gray"
      stroke="currentColor"
      fill="none"
    >
    <path
        d="m103 25h421.5"
    />
  </g
  >
  <g
      style="color:black"
      stroke="currentColor"
      fill="none"
    >
    <path
        d="m103 25m421.5 0"
    />
    <g
        style="text-anchor:end"
        font-family="Arial"
        transform="translate(90.5,31.7)"
        font-size="18"
        fill="#000"
      >
      <text
        >40</text
      >
    </g
    >
    <path
        d="m120.6 446m0-421"
    />
    <g
        style="text-anchor:middle"
        font-family="Arial"
        transform="translate(120.6,479.7)"
        font-size="18"
        fill="#000"
      >
      <text
        >J</text
      >
    </g
    >
    <path
        d="m155.7 446m0-421"
    />
    <g
        style="text-anchor:middle"
        font-family="Arial"
        transform="translate(155.7,479.7)"
        font-size="18"
        fill="#000"
      >
      <text
        >F</text
      >
    </g
    >
    <path
        d="m190.8 446m0-421"
    />
    <g
        style="text-anchor:middle"
        font-family="Arial"
        transform="translate(190.8,479.7)"
        font-size="18"
        fill="#000"
      >
      <text
        >M</text
      >
    </g
    >
    <path
        d="m225.9 446m0-421"
    />
    <g
        style="text-anchor:middle"
        font-family="Arial"
        transform="translate(225.9,479.7)"
        font-size="18"
        fill="#000"
      >
      <text
        >A</text
      >
    </g
    >
    <path
        d="m261.1 446m0-421"
    />
    <g
        style="text-anchor:middle"
        font-family="Arial"
        transform="translate(261.1,479.7)"
        font-size="18"
        fill="#000"
      >
      <text
        >M</text
      >
    </g
    >
    <path
        d="m296.2 446m0-421"
    />
    <g
        style="text-anchor:middle"
        font-family="Arial"
        transform="translate(296.2,479.7)"
        font-size="18"
        fill="#000"
      >
      <text
        >J</text
      >
    </g
    >
    <path
        d="m331.3 446m0-421"
    />
    <g
        style="text-anchor:middle"
        font-family="Arial"
        transform="translate(331.3,479.7)"
        font-size="18"
        fill="#000"
      >
      <text
        >J</text
      >
    </g
    >
    <path
        d="m366.4 446m0-421"
    />
    <g
        style="text-anchor:middle"
        font-family="Arial"
        transform="translate(366.4,479.7)"
        font-size="18"
        fill="#000"
      >
      <text
        >A</text
      >
    </g
    >
    <path
        d="m401.6 446m0-421"
    />
    <g
        style="text-anchor:middle"
        font-family="Arial"
        transform="translate(401.6,479.7)"
        font-size="18"
        fill="#000"
      >
      <text
        >S</text
      >
    </g
    >
    <path
        d="m436.7 446m0-421"
    />
    <g
        style="text-anchor:middle"
        font-family="Arial"
        transform="translate(436.7,479.7)"
        font-size="18"
        fill="#000"
      >
      <text
        >O</text
      >
    </g
    >
    <path
        d="m471.8 446m0-421"
    />
    <g
        style="text-anchor:middle"
        font-family="Arial"
        transform="translate(471.8,479.7)"
        font-size="18"
        fill="#000"
      >
      <text
        >N</text
      >
    </g
    >
    <path
        d="m506.9 446m0-421"
    />
    <g
        style="text-anchor:middle"
        font-family="Arial"
        transform="translate(506.9,479.7)"
        font-size="18"
        fill="#000"
      >
      <text
        >D</text
      >
    </g
    >
    <path
        d="m524.5 235.5"
    />
    <g
        font-size="18"
        font-family="Arial"
        transform="translate(537 242.2)"
        fill="#000"
      >
      <text
        >0</text
      >
    </g
    >
    <path
        d="m524.5 182.9"
    />
    <g
        font-size="18"
        font-family="Arial"
        transform="translate(537 189.6)"
        fill="#000"
      >
      <text
        >25</text
      >
    </g
    >
    <path
        d="m524.5 130.2"
    />
    <g
        font-size="18"
        font-family="Arial"
        transform="translate(537 136.9)"
        fill="#000"
      >
      <text
        >50</text
      >
    </g
    >
    <path
        d="m524.5 77.6"
    />
    <g
        font-size="18"
        font-family="Arial"
        transform="translate(537 84.3)"
        fill="#000"
      >
      <text
        >75</text
      >
    </g
    >
    <path
        d="m524.5 25"
    />
    <g
        font-size="18"
        font-family="Arial"
        transform="translate(537 31.7)"
        fill="#000"
      >
      <text
        >100</text
      >
    </g
    >
    <path
        d="m103 25v421h421.5v-421h-421.5z"
    />
    <g
        style="text-anchor:middle"
        font-family="Arial"
        transform="translate(33.7,235.5) rotate(-90)"
        font-size="18"
        fill="#000"
      >
      <text
        >Avg temperature (&#xB0;C)</text
      >
    </g
    >
    <g
        style="text-anchor:middle"
        font-family="Arial"
        transform="translate(619.6,235.5) rotate(-90)"
        font-size="18"
        fill="#000"
      >
      <text
        >Avg precipitation (mm)</text
      >
    </g
    >
    <g
        style="shape-rendering:crispEdges"
      >
      <polygon
          points="444.4 109.2 444.4 29.3 520.2 29.3 520.2 109.2"
          fill="#ddf"
      />
    </g
    >
    <path
        d="m444.4 109.2v-79.9h75.8v79.9h-75.8"
    />
  </g
  >
  <g
      style="color:black"
      stroke-width="0"
      fill="none"
    >
    <g
        style="shape-rendering:crispEdges"
      >
      <polygon
          points="448.6 105 448.6 84 516 84 516 105"
          fill="#bbf"
      />
    </g
    >
    <path
        d="m448.6 105v-21h67.4v21h-67.4"
    />
    <g
        font-size="18"
        font-family="Arial"
        transform="translate(450 47.7)"
        fill="#f00"
      >
      <text
        >max &#xB0;C</text
      >
    </g
    >
    <g
        font-size="18"
        font-family="Arial"
        transform="translate(450 74.7)"
        fill="#00f"
      >
      <text
        >min &#xB0;C</text
      >
    </g
    >
    <g
        font-size="18"
        font-family="Arial"
        transform="translate(450 101.7)"
        fill="#000"
      >
      <text
        >rainfall</text
      >
    </g
    >
  </g
  >
  <g
      style="color:red"
      stroke="currentColor"
      fill="none"
    >
    <g
        style="shape-rendering:crispEdges"
      >
      <polygon
          points="110 235.5 110 235.4 131.2 235.4 131.2 235.5"
          fill="#bbf"
      />
    </g
    >
    <path
        stroke="#bbf"
        d="m110 235.5h21.1-21.1z"
    />
    <g
        style="shape-rendering:crispEdges"
      >
      <polygon
          points="145.1 235.5 145.1 235.4 166.3 235.4 166.3 235.5"
          fill="#bbf"
      />
    </g
    >
    <path
        stroke="#bbf"
        d="m145.1 235.5h21.1-21.1z"
    />
    <g
        style="shape-rendering:crispEdges"
      >
      <polygon
          points="180.3 235.5 180.3 229.1 201.4 229.1 201.4 235.5"
          fill="#bbf"
      />
    </g
    >
    <path
        stroke="#bbf"
        d="m180.3 235.5v-6.3h21v6.3h-21z"
    />
    <g
        style="shape-rendering:crispEdges"
      >
      <polygon
          points="215.4 235.5 215.4 224.9 236.6 224.9 236.6 235.5"
          fill="#bbf"
      />
    </g
    >
    <path
        stroke="#bbf"
        d="m215.4 235.5v-10.5h21.1v10.5h-21.1z"
    />
    <g
        style="shape-rendering:crispEdges"
      >
      <polygon
          points="250.5 235.5 250.5 214.3 271.7 214.3 271.7 235.5"
          fill="#bbf"
      />
    </g
    >
    <path
        stroke="#bbf"
        d="m250.5 235.5v-21.1h21.1v21.1h-21.1z"
    />
    <g
        style="shape-rendering:crispEdges"
      >
      <polygon
          points="285.7 235.5 285.7 176.5 306.8 176.5 306.8 235.5"
          fill="#bbf"
      />
    </g
    >
    <path
        stroke="#bbf"
        d="m285.7 235.5v-58.9h21v58.9h-21z"
    />
    <g
        style="shape-rendering:crispEdges"
      >
      <polygon
          points="320.8 235.5 320.8 75.4 341.9 75.4 341.9 235.5"
          fill="#bbf"
      />
    </g
    >
    <path
        stroke="#bbf"
        d="m320.8 235.5v-160h21v160h-21z"
    />
    <g
        style="shape-rendering:crispEdges"
      >
      <polygon
          points="355.9 235.5 355.9 128 377.1 128 377.1 235.5"
          fill="#bbf"
      />
    </g
    >
    <path
        stroke="#bbf"
        d="m355.9 235.5v-107.4h21.1v107.4h-21.1z"
    />
    <g
        style="shape-rendering:crispEdges"
      >
      <polygon
          points="391 235.5 391 187 412.2 187 412.2 235.5"
          fill="#bbf"
      />
    </g
    >
    <path
        stroke="#bbf"
        d="m391 235.5v-48.4h21.1v48.4h-21.1z"
    />
    <g
        style="shape-rendering:crispEdges"
      >
      <polygon
          points="426.1 235.5 426.1 224.9 447.3 224.9 447.3 235.5"
          fill="#bbf"
      />
    </g
    >
    <path
        stroke="#bbf"
        d="m426.1 235.5v-10.5h21.1v10.5h-21.1z"
    />
    <g
        style="shape-rendering:crispEdges"
      >
      <polygon
          points="461.3 235.5 461.3 224.9 482.5 224.9 482.5 235.5"
          fill="#bbf"
      />
    </g
    >
    <path
        stroke="#bbf"
        d="m461.3 235.5v-10.5h21.1v10.5h-21.1z"
    />
    <g
        style="shape-rendering:crispEdges"
      >
      <polygon
          points="496.4 235.5 496.4 229.1 517.6 229.1 517.6 235.5"
          fill="#bbf"
      />
    </g
    >
    <path
        stroke="#bbf"
        d="m496.4 235.5v-6.3h21.1v6.3h-21.1z"
    />
  </g
  >
  <g
      style="color:blue"
      stroke-width="2"
      stroke="currentColor"
      fill="none"
    >
    <path
        d="m120.6 403.9l35.1-15.8 35.1-36.8 35.1-73.7 35.2-31.6 35.1-47.3 35.1-21.1 35.1 15.8 35.2 31.6 35.1 52.6 35.1 63.1 35.1 42.1"
    />
  </g
  >
  <g
      style="color:red"
      stroke-width="2"
      stroke="currentColor"
      fill="none"
    >
    <path
        d="m120.6 335.5l35.1-31.6 35.1-47.4 35.1-57.8 35.2-31.6 35.1-42.1 35.1-5.3 35.1 5.3 35.2 36.8 35.1 42.1 35.1 63.2 35.1 52.6"
    />
  </g
  >
  <g
      style="color:black"
      stroke="currentColor"
      fill="none"
    >
    <path
        d="m103 25v421h421.5v-421h-421.5z"
    />
  </g
  >
  <metadata
    >
    <rdf:RDF
      >
      <cc:Work
        >
        <dc:format
          >image/svg+xml</dc:format
        >
        <dc:type
            rdf:resource="http://purl.org/dc/dcmitype/StillImage"
        />
        <cc:license
            rdf:resource="http://creativecommons.org/licenses/publicdomain/"
        />
        <dc:publisher
          >
          <cc:Agent
              rdf:about="http://openclipart.org/"
            >
            <dc:title
              >Openclipart</dc:title
            >
          </cc:Agent
          >
        </dc:publisher
        >
        <dc:title
          >Climate Chart Of Ulan_Bator</dc:title
        >
        <dc:date
          >2013-08-29T20:15:46</dc:date
        >
        <dc:description
          >Public Domain Source http://commons.wikimedia.org/wiki/File:Climate_chart_of_Ulan_Bator.svg </dc:description
        >
        <dc:source
          >https://openclipart.org/detail/182670/climate-chart-of-ulan_bator-by-gnuplot-182670</dc:source
        >
        <dc:creator
          >
          <cc:Agent
            >
            <dc:title
              >gnuplot</dc:title
            >
          </cc:Agent
          >
        </dc:creator
        >
        <dc:subject
          >
          <rdf:Bag
            >
            <rdf:li
              >Ulan_Bator</rdf:li
            >
            <rdf:li
              >chart</rdf:li
            >
            <rdf:li
              >climate</rdf:li
            >
            <rdf:li
              >gnuplot</rdf:li
            >
            <rdf:li
              >upload2openclipart</rdf:li
            >
          </rdf:Bag
          >
        </dc:subject
        >
      </cc:Work
      >
      <cc:License
          rdf:about="http://creativecommons.org/licenses/publicdomain/"
        >
        <cc:permits
            rdf:resource="http://creativecommons.org/ns#Reproduction"
        />
        <cc:permits
            rdf:resource="http://creativecommons.org/ns#Distribution"
        />
        <cc:permits
            rdf:resource="http://creativecommons.org/ns#DerivativeWorks"
        />
      </cc:License
      >
    </rdf:RDF
    >
  </metadata
  >
</svg
>
